…
Most species have a very small number of collisions.

``` r
birds %>% 
  count(num_collisions, sort = TRUE)
```

    ## # A tibble: 81 x 2
    ##    num_collisions     n
    ##             <dbl> <int>
    ##  1              6     3
    ##  2              1     2
    ##  3              2     2
    ##  4              4     2
    ##  5              9     2
    ##  6             12     2
    ##  7             15     2
    ##  8             16     2
    ##  9             68     2
    ## 10              3     1
    ## # … with 71 more rows
…
