…
It looks like the number of collisions is increasing.

``` r
collisions %>% 
  count(genus, species, sort = TRUE)
```

    ## # A tibble: 91 x 3
    ##    genus       species         n
    ##    <chr>       <chr>       <int>
    ##  1 Zonotrichia Albicollis  10133
    ##  2 Junco       Hyemalis     6303
    ##  3 Melospiza   Melodia      5124
    ##  4 Melospiza   Georgiana    4910
    ##  5 Seiurus     Aurocapilla  4580
    ##  6 Catharus    Guttatus     3729
    ##  7 Certhia     Americana    2676
    ##  8 Oreothlypis Peregrina    2515
    ##  9 Passerella  Iliaca       2443
    ## 10 Catharus    Ustulatus    2331
    ## # … with 81 more rows

``` r
collisions %>% 
  count(genus, sort = TRUE)
```

    ## # A tibble: 45 x 2
    ##    genus           n
    ##    <chr>       <int>
    ##  1 Melospiza   12063
    ##  2 Zonotrichia 11225
    ##  3 Catharus     7609
    ##  4 Junco        6303
    ##  5 Setophaga    6032
    ##  6 Seiurus      4580
    ##  7 Oreothlypis  4432
    ##  8 Certhia      2676
    ##  9 Passerella   2443
    ## 10 Geothlypis   2001
    ## # … with 35 more rows
…
