…
``` r
light_mp |> 
  count(date, sort = TRUE)
```

    ## # A tibble: 3,062 × 2
    ##    date           n
    ##    <date>     <int>
    ##  1 2000-03-06     1
    ##  2 2000-03-08     1
    ##  3 2000-03-10     1
    ##  4 2000-03-31     1
    ##  5 2000-04-02     1
    ##  6 2000-04-14     1
    ##  7 2000-04-15     1
    ##  8 2000-04-30     1
    ##  9 2000-05-01     1
    ## 10 2000-05-03     1
    ## # ℹ 3,052 more rows
…
